기사쓰기
…
st_drop_geometry(map_sf) |> as_tibble() #지도는 빼고 데이터만 뽑기

# A tibble: 253 × 4
   SGG_Code SGG_1 SGG_2                               SGG_3                  
      <int> <chr> <chr>                               <chr>                  
 1  2270202 대구  대구광역시 동구을                   대구 동구을            
 2  2270101 대구  대구광역시 중구남구                 대구 중구남구          
 3  2412001 경기  경기도 고양시갑                     경기 고양갑            
 4  2411002 경기  경기도 안양시동안구을               경기 안양동안을        
 5  2480802 경남  경상남도 김해시을                   경남 김해을            
 6  2410301 경기  경기도 수원시병                     경기 수원병            
 7  2280702 인천  인천광역시 계양구을                 인천 계양을            
 8  2110601 서울  서울특별시 동대문구갑               서울 동대문갑          
 9  2460702 전남  전라남도 순천시광양시곡성군구례군을 전남 순천광양곡성구례을
10  2440103 충남  충청남도 천안시병                   충남 천안병            
# ℹ 243 more rows
…
